%YAML 1.1
%TAG !u! tag:unity3d.com,2011:
--- !u!21 &2100000
Material:
  serializedVersion: 8
  m_ObjectHideFlags: 0
  m_CorrespondingSourceObject: {fileID: 0}
  m_PrefabInstance: {fileID: 0}
  m_PrefabAsset: {fileID: 0}
  m_Name: a new mat
  m_Shader: {fileID: -6465566751694194690, guid: 97a4038b20eac574686c307c82f70d73,
    type: 3}
  m_Parent: {fileID: 0}
  m_ModifiedSerializedProperties: 0
  m_ValidKeywords: []
  m_InvalidKeywords:
  - MULTIPLY
  m_LightmapFlags: 4
  m_EnableInstancingVariants: 0
  m_DoubleSidedGI: 0
  m_CustomRenderQueue: -1
  stringTagMap: {}
  disabledShaderPasses: []
  m_LockedProperties: 
  m_SavedProperties:
    serializedVersion: 3
    m_TexEnvs:
    - MainTex:
        m_Texture: {fileID: 0}
        m_Scale: {x: 1, y: 1}
        m_Offset: {x: 0, y: 0}
    - Mask_R_Emission:
        m_Texture: {fileID: 0}
        m_Scale: {x: 1, y: 1}
        m_Offset: {x: 0, y: 0}
    - Normal:
        m_Texture: {fileID: 0}
        m_Scale: {x: 1, y: 1}
        m_Offset: {x: 0, y: 0}
    - Texture2D_153BB4A9:
        m_Texture: {fileID: 0}
        m_Scale: {x: 1, y: 1}
        m_Offset: {x: 0, y: 0}
    - Texture2D_16F1152:
        m_Texture: {fileID: 2800000, guid: fbee5db1d50dff147a80fb0bd36a93a7, type: 3}
        m_Scale: {x: 1, y: 1}
        m_Offset: {x: 0, y: 0}
    - Texture2D_2795F13F:
        m_Texture: {fileID: 2800000, guid: 03119865611f8dd4eaedda89ffb528fc, type: 3}
        m_Scale: {x: 1, y: 1}
        m_Offset: {x: 0, y: 0}
    - Texture2D_2EF7EF71:
        m_Texture: {fileID: 0}
        m_Scale: {x: 1, y: 1}
        m_Offset: {x: 0, y: 0}
    - Texture2D_3D9304CA:
        m_Texture: {fileID: 0}
        m_Scale: {x: 1, y: 1}
        m_Offset: {x: 0, y: 0}
    - Texture2D_46142A89:
        m_Texture: {fileID: 0}
        m_Scale: {x: 1, y: 1}
        m_Offset: {x: 0, y: 0}
    - Texture2D_5ABE27D5:
        m_Texture: {fileID: 0}
        m_Scale: {x: 1, y: 1}
        m_Offset: {x: 0, y: 0}
    - Texture2D_65112f3713d6467ba58a940c66a18e51:
        m_Texture: {fileID: 2800000, guid: e2792a7e67898db429fdfaf4f6d8bfb5, type: 3}
        m_Scale: {x: 1, y: 1}
        m_Offset: {x: 0, y: 0}
    - Texture2D_65D5FDA2:
        m_Texture: {fileID: 0}
        m_Scale: {x: 1, y: 1}
        m_Offset: {x: 0, y: 0}
    - Texture2D_6600F0C2:
        m_Texture: {fileID: 2800000, guid: bf1e7db123230234e893cb2e51995e8d, type: 3}
        m_Scale: {x: 1, y: 1}
        m_Offset: {x: 0, y: 0}
    - Texture2D_6AE89E13:
        m_Texture: {fileID: 0}
        m_Scale: {x: 1, y: 1}
        m_Offset: {x: 0, y: 0}
    - Texture2D_6b6631e24fc04a838a15a8e5997a3e06:
        m_Texture: {fileID: 2800000, guid: 2d2458e1febe9f748bdb3b9c81efc162, type: 3}
        m_Scale: {x: 1, y: 1}
        m_Offset: {x: 0, y: 0}
    - Texture2D_71AD7FEB:
        m_Texture: {fileID: 2800000, guid: 308ec3449abca81369446fc4d678c9d4, type: 3}
        m_Scale: {x: 1, y: 1}
        m_Offset: {x: 0, y: 0}
    - Texture2D_8BBBB8E1:
        m_Texture: {fileID: 0}
        m_Scale: {x: 1, y: 1}
        m_Offset: {x: 0, y: 0}
    - Texture2D_975FBC1F:
        m_Texture: {fileID: 2800000, guid: 308ec3449abca81369446fc4d678c9d4, type: 3}
        m_Scale: {x: 1, y: 1}
        m_Offset: {x: 0, y: 0}
    - Texture2D_97791A35:
        m_Texture: {fileID: 0}
        m_Scale: {x: 1, y: 1}
        m_Offset: {x: 0, y: 0}
    - Texture2D_A13BA8BF:
        m_Texture: {fileID: 0}
        m_Scale: {x: 1, y: 1}
        m_Offset: {x: 0, y: 0}
    - Texture2D_CBBE5ED1:
        m_Texture: {fileID: 10300, guid: 0000000000000000f000000000000000, type: 0}
        m_Scale: {x: 1, y: 1}
        m_Offset: {x: 0, y: 0}
    - Texture2D_CCA1A8BC:
        m_Texture: {fileID: 10300, guid: 0000000000000000f000000000000000, type: 0}
        m_Scale: {x: 1, y: 1}
        m_Offset: {x: 0, y: 0}
    - Texture2D_D301EE22:
        m_Texture: {fileID: 0}
        m_Scale: {x: 1, y: 1}
        m_Offset: {x: 0, y: 0}
    - Texture2D_D69BD9A3:
        m_Texture: {fileID: 2800000, guid: ccf1815452976344a86e1ff94b157862, type: 3}
        m_Scale: {x: 1, y: 1}
        m_Offset: {x: 0, y: 0}
    - Texture2D_DA6DAE79:
        m_Texture: {fileID: 0}
        m_Scale: {x: 1, y: 1}
        m_Offset: {x: 0, y: 0}
    - Texture2D_E844BACA:
        m_Texture: {fileID: 2800000, guid: 11274758a49a1cc8086637f5d5336ff7, type: 3}
        m_Scale: {x: 1, y: 1}
        m_Offset: {x: 0, y: 0}
    - Texture2D_F319565F:
        m_Texture: {fileID: 0}
        m_Scale: {x: 1, y: 1}
        m_Offset: {x: 0, y: 0}
    - Texture2D_F85BF93B:
        m_Texture: {fileID: 2800000, guid: 6d8421fc6c3908f4a9ec1921a0872572, type: 3}
        m_Scale: {x: 1, y: 1}
        m_Offset: {x: 0, y: 0}
    - Texture2D_ce5cdb9087c54ac1a756013dbc7ed12a:
        m_Texture: {fileID: 2800000, guid: 2d2458e1febe9f748bdb3b9c81efc162, type: 3}
        m_Scale: {x: 1, y: 1}
        m_Offset: {x: 0, y: 0}
    - _Albedo:
        m_Texture: {fileID: 0}
        m_Scale: {x: 1, y: 1}
        m_Offset: {x: 0, y: 0}
    - _BaseMap:
        m_Texture: {fileID: 0}
        m_Scale: {x: 1, y: 1}
        m_Offset: {x: 0, y: 0}
    - _BumpMap:
        m_Texture: {fileID: 0}
        m_Scale: {x: 1, y: 1}
        m_Offset: {x: 0, y: 0}
    - _DetailAlbedoMap:
        m_Texture: {fileID: 0}
        m_Scale: {x: 1, y: 1}
        m_Offset: {x: 0, y: 0}
    - _DetailMask:
        m_Texture: {fileID: 0}
        m_Scale: {x: 1, y: 1}
        m_Offset: {x: 0, y: 0}
    - _DetailNormalMap:
        m_Texture: {fileID: 0}
        m_Scale: {x: 1, y: 1}
        m_Offset: {x: 0, y: 0}
    - _Details:
        m_Texture: {fileID: 2800000, guid: 2d2458e1febe9f748bdb3b9c81efc162, type: 3}
        m_Scale: {x: 1, y: 1}
        m_Offset: {x: 0, y: 0}
    - _Diffuse:
        m_Texture: {fileID: 0}
        m_Scale: {x: 1, y: 1}
        m_Offset: {x: 0, y: 0}
    - _Diffuse2:
        m_Texture: {fileID: 0}
        m_Scale: {x: 1, y: 1}
        m_Offset: {x: 0, y: 0}
    - _DisolveGuide:
        m_Texture: {fileID: 0}
        m_Scale: {x: 1, y: 1}
        m_Offset: {x: 0, y: 0}
    - _Distort:
        m_Texture: {fileID: 0}
        m_Scale: {x: 1, y: 1}
        m_Offset: {x: 0, y: 0}
    - _EmissTex:
        m_Texture: {fileID: 0}
        m_Scale: {x: 1, y: 1}
        m_Offset: {x: 0, y: 0}
    - _EmissionMap:
        m_Texture: {fileID: 0}
        m_Scale: {x: 1, y: 1}
        m_Offset: {x: 0, y: 0}
    - _Emissive:
        m_Texture: {fileID: 0}
        m_Scale: {x: 1, y: 1}
        m_Offset: {x: 0, y: 0}
    - _Emissive2:
        m_Texture: {fileID: 0}
        m_Scale: {x: 1, y: 1}
        m_Offset: {x: 0, y: 0}
    - _Lights:
        m_Texture: {fileID: 2800000, guid: 2d2458e1febe9f748bdb3b9c81efc162, type: 3}
        m_Scale: {x: 1, y: 1}
        m_Offset: {x: 0, y: 0}
    - _MainTex:
        m_Texture: {fileID: 0}
        m_Scale: {x: 1, y: 1}
        m_Offset: {x: 0, y: 0}
    - _MainTex1:
        m_Texture: {fileID: 2800000, guid: 764718275c0c5cb5688b7c04481876d3, type: 3}
        m_Scale: {x: 1, y: 1}
        m_Offset: {x: 0, y: 0}
    - _MetallicGlossMap:
        m_Texture: {fileID: 0}
        m_Scale: {x: 1, y: 1}
        m_Offset: {x: 0, y: 0}
    - _Noise:
        m_Texture: {fileID: 0}
        m_Scale: {x: 1, y: 1}
        m_Offset: {x: 0, y: 0}
    - _Normal:
        m_Texture: {fileID: 2800000, guid: e2792a7e67898db429fdfaf4f6d8bfb5, type: 3}
        m_Scale: {x: 1, y: 1}
        m_Offset: {x: 0, y: 0}
    - _NormalFromTexture_27184ccabd50f48389a455a78e5b7102_Texture_0:
        m_Texture: {fileID: 0}
        m_Scale: {x: 1, y: 1}
        m_Offset: {x: 0, y: 0}
    - _NormalFromTexture_5168e3aa729e3c8f9e9ba0889df8a04d_Texture_0:
        m_Texture: {fileID: 0}
        m_Scale: {x: 1, y: 1}
        m_Offset: {x: 0, y: 0}
    - _NormalMap:
        m_Texture: {fileID: 0}
        m_Scale: {x: 1, y: 1}
        m_Offset: {x: 0, y: 0}
    - _NormalMap2:
        m_Texture: {fileID: 0}
        m_Scale: {x: 1, y: 1}
        m_Offset: {x: 0, y: 0}
    - _OcclusionMap:
        m_Texture: {fileID: 0}
        m_Scale: {x: 1, y: 1}
        m_Offset: {x: 0, y: 0}
    - _OutlineZOffsetMaskTex:
        m_Texture: {fileID: 0}
        m_Scale: {x: 1, y: 1}
        m_Offset: {x: 0, y: 0}
    - _ParallaxMap:
        m_Texture: {fileID: 0}
        m_Scale: {x: 1, y: 1}
        m_Offset: {x: 0, y: 0}
    - _RampTex:
        m_Texture: {fileID: 0}
        m_Scale: {x: 1, y: 1}
        m_Offset: {x: 0, y: 0}
    - _RimLight:
        m_Texture: {fileID: 2800000, guid: 2d2458e1febe9f748bdb3b9c81efc162, type: 3}
        m_Scale: {x: 1, y: 1}
        m_Offset: {x: 0, y: 0}
    - _SampleTexture2DLOD_7fc7f4d90b44a284b97611a5516be128_Texture_1:
        m_Texture: {fileID: 0}
        m_Scale: {x: 1, y: 1}
        m_Offset: {x: 0, y: 0}
    - _SampleTexture2D_38dd5d424fe5a586849d3c012d98a9a7_Texture_1:
        m_Texture: {fileID: 0}
        m_Scale: {x: 1, y: 1}
        m_Offset: {x: 0, y: 0}
    - _SampleTexture2D_58a26d83c7b783819d77071a53bc4218_Texture_1:
        m_Texture: {fileID: 0}
        m_Scale: {x: 1, y: 1}
        m_Offset: {x: 0, y: 0}
    - _SpecGlossMap:
        m_Texture: {fileID: 0}
        m_Scale: {x: 1, y: 1}
        m_Offset: {x: 0, y: 0}
    - _Texture0:
        m_Texture: {fileID: 0}
        m_Scale: {x: 1, y: 1}
        m_Offset: {x: 0, y: 0}
    - _Texture2DAsset_0b8e0e4675f00285a7a61515d91a9799_Out_0:
        m_Texture: {fileID: 0}
        m_Scale: {x: 1, y: 1}
        m_Offset: {x: 0, y: 0}
    - _Texture2DAsset_905ab04b19e1a7889df1089f731fce2d_Out_0:
        m_Texture: {fileID: 0}
        m_Scale: {x: 1, y: 1}
        m_Offset: {x: 0, y: 0}
    - _Texture2DAsset_cf724cd288b22688b36dfc5684c9cdee_Out_0:
        m_Texture: {fileID: 0}
        m_Scale: {x: 1, y: 1}
        m_Offset: {x: 0, y: 0}
    - _Texture2DAsset_f23b9ee26c67c188960f9f8d0c27569b_Out_0:
        m_Texture: {fileID: 0}
        m_Scale: {x: 1, y: 1}
        m_Offset: {x: 0, y: 0}
    - _ToonRamp:
        m_Texture: {fileID: 2800000, guid: 2d2458e1febe9f748bdb3b9c81efc162, type: 3}
        m_Scale: {x: 1, y: 1}
        m_Offset: {x: 0, y: 0}
    - _normal:
        m_Texture: {fileID: 0}
        m_Scale: {x: 1, y: 1}
        m_Offset: {x: 0, y: 0}
    - _tex3coord:
        m_Texture: {fileID: 0}
        m_Scale: {x: 1, y: 1}
        m_Offset: {x: 0, y: 0}
    - _texcoord:
        m_Texture: {fileID: 0}
        m_Scale: {x: 1, y: 1}
        m_Offset: {x: 0, y: 0}
    - unity_Lightmaps:
        m_Texture: {fileID: 0}
        m_Scale: {x: 1, y: 1}
        m_Offset: {x: 0, y: 0}
    - unity_LightmapsInd:
        m_Texture: {fileID: 0}
        m_Scale: {x: 1, y: 1}
        m_Offset: {x: 0, y: 0}
    - unity_ShadowMasks:
        m_Texture: {fileID: 0}
        m_Scale: {x: 1, y: 1}
        m_Offset: {x: 0, y: 0}
    m_Ints: []
    m_Floats:
    - BOOLEAN_2069228C: 0
    - BOOLEAN_6BA73990: 0
    - BOOLEAN_85462CC0: 1
    - BOOLEAN_A9457EB: 0
    - BOOLEAN_C19FCA5F: 0
    - BOOLEAN_ED32EB6C: 0
    - Brightness_Rim: 2
    - DissolveAmount: 0.355
    - FlashSpeed: 1
    - Power: 2
    - Rim_Power: 5
    - Toon_Ramp_Offset: 0.5
    - Toon_Ramp_Smoothness: 0
    - Vector1_1: 3
    - Vector1_110D2CC3: 0
    - Vector1_1419e0aed5a9426889531ca9050b0eee: 0
    - Vector1_1719B857: 1
    - Vector1_1ED1CE4: 1
    - Vector1_1F4439C0: 0
    - Vector1_1F6AC4F6: 0.5
    - Vector1_1b2a1e92f6c447549efd2e52bf41de71: 50
    - Vector1_1d2ada87a20a4bd0a7329304fa6ce71c: 12
    - Vector1_20D2257A: 1
    - Vector1_23DF1EC2: 32
    - Vector1_2756BAFF: 0.1
    - Vector1_29156be5923c4a65b337a6001bbc4d5e: 0.5
    - Vector1_2C81DB0A: 0.2
    - Vector1_3286D1FC: 4.64
    - Vector1_32A36A6E: 1
    - Vector1_346F1C8A: 0.5
    - Vector1_3514BC34: 0.5
    - Vector1_35CB2505: 20
    - Vector1_365F0C10: 3
    - Vector1_38E09E78: 0
    - Vector1_38ca2f9ec911411aac0441e8cab8f84d: 1
    - Vector1_3CAEFFB9: 8.68
    - Vector1_3D9FC49E: 2
    - Vector1_431B35CD: 0.01
    - Vector1_45510D85: 0.5
    - Vector1_48d4705304ef45e4852ce77768b7175c: 0.5
    - Vector1_4CCA15F1: 2.5
    - Vector1_4D9C3F0: 2
    - Vector1_4ee75b2ab46346309951c5652bf25202: 1
    - Vector1_516E173B: 0.78
    - Vector1_59AC9123: 0
    - Vector1_5D771AA8: 10
    - Vector1_61FDC798: 7
    - Vector1_64375156: 7
    - Vector1_6988256A: 1
    - Vector1_6B3E248A: 0
    - Vector1_6B52F1AD: 1
    - Vector1_6C2C1CE3: 0.7
    - Vector1_6CB12BC2: 10
    - Vector1_6e599e19b7114a5e8cd70f0f42372457: 0.15
    - Vector1_71C08596: 1
    - Vector1_725386B0: 0.716
    - Vector1_74D25D5F: 0.03
    - Vector1_76E2D984: 2
    - Vector1_7853A8E1: 5
    - Vector1_800C0A23: 1
    - Vector1_827F767F: 20
    - Vector1_82C87E16: 1.2
    - Vector1_862B5294: 1
    - Vector1_8FDC7A6E: 0.5
    - Vector1_9007A39E: 0.1
    - Vector1_90E1B224: 0
    - Vector1_91418CA3: 7.96
    - Vector1_96949601: 20
    - Vector1_97783216: 1
    - Vector1_97DD155E: 0
    - Vector1_9EEFCD86: 52.55
    - Vector1_A218B5F4: 7
    - Vector1_A2494A5E: 1
    - Vector1_A3A8D512: 4
    - Vector1_A3DCF2B4: 0.01
    - Vector1_B4F147: 0.8
    - Vector1_B500DB0D: 0.1
    - Vector1_B9C99FFF: 0.5
    - Vector1_B9E037E: 0.02
    - Vector1_BC009DD9: 0.417
    - Vector1_BD86FF76: 0.2
    - Vector1_C19549EA: 0.5
    - Vector1_C337BB2D: 0.2
    - Vector1_CD0D60DD: 0.708
    - Vector1_D0AE4DAE: 2
    - Vector1_D53AE2DB: 0.1
    - Vector1_D56F2D87: 0.05
    - Vector1_D5F6566: 0.015
    - Vector1_D7AD764F: 0.1
    - Vector1_D94F9D3F: 0
    - Vector1_DCCBC99A: 0
    - Vector1_E7E7E7A9: 5
    - Vector1_E8F3616A: 2.6
    - Vector1_EB374746: 0.294
    - Vector1_F213A108: 10
    - Vector1_F3F665A2: 1
    - Vector1_FD9B16DB: 1
    - Vector1_FE589963: 0
    - Vector1_c2b02841441c4fda8364c192640b5727: 1.68
    - Vector1_ea695d268f43441f970d40e09419f9cb: 1
    - Vector1_edfef178ba12400fbb550bb1d9e5f2d3: 0
    - Vector1_f1ccc9fc9ded4cb8a8e85ac170ba9337: 1
    - Vector1_fc7bbaef27f444f5844285e03e193593: 1
    - _AdditionalLightIgnoreCelShade: 0.9
    - _AlphaClip: 0
    - _AlphaCutoff: 0.5
    - _Amplitude: 1
    - _Blend: 0
    - _BlendOp: 0
    - _Brightness: 0.6
    - _BumpScale: 1
    - _CelShadeMidPoint: -0.5
    - _CelShadeSoftness: 0.05
    - _ClayxelSize: 0.69
    - _ClearCoatMask: 0
    - _ClearCoatSmoothness: 0
    - _Clip: 0
    - _ClipThreshhold: 0.2
    - _CloudSize: 5
    - _Cull: 2
    - _Cutoff: 1.84
    - _Damage: 0
    - _Depthpower: 1
    - _DetailAlbedoMapScale: 1
    - _DetailNormalMapScale: 1
    - _Dimming: 0.75
    - _DirectLightMultiplier: 1
    - _DissolveAmount: 1
    - _DistanceCutoff: 0
    - _DistortScale: 0.5
    - _DstBlend: 0
    - _EdgeWidth: 0.4
    - _Emission: 2
    - _EmissionMulByBaseColor: 0
    - _EnvironmentReflections: 1
    - _Flash: 0
    - _FlashAmount: -0.75
    - _FlashIntensity: -0.6
    - _Frequency: 10
    - _FresnelPower: 0
    - _GlossMapScale: 0
    - _Glossiness: 0
    - _GlossyReflections: 0
    - _Hit: 1.74
    - _HitColorAmount: 0.737
    - _HitFrequency: 1.61
    - _HitRange: 2.39
    - _HitStrength: 0.98
    - _IndirectLightMultiplier: 1
    - _IsFace: 0
    - _Low_health: 0
    - _MULTIPLY: 1
    - _MainLightIgnoreCelShade: 0
    - _Metallic: 0
    - _NormalOrient: 1
    - _NormalScale: 0
    - _OcclusionRemapEnd: 1
    - _OcclusionRemapStart: 0
    - _OcclusionStrength: 1
    - _Opacity: 1
    - _Outline: 0.005
    - _OutlineThickness: 0.31
    - _OutlineWidth: 0
    - _OutlineZOffset: 0.0001
    - _OutlineZOffsetMaskRemapEnd: 1
    - _OutlineZOffsetMaskRemapStart: 0
    - _Parallax: 0.005
    - _Particle: 0
    - _Phase: 0
    - _QueueControl: 0
    - _QueueOffset: 0
    - _Random: 0
    - _ReceiveShadowMappingAmount: 0.65
    - _ReceiveShadowMappingPosOffset: 0
    - _ReceiveShadows: 1
    - _RimLightFlash: 0
    - _RimOffset: 0.24
    - _RimPower: 0.5
    - _RimShadow: 0
    - _RoughBump: 0
    - _RoughColor: 0
    - _RoughOrient: 0
    - _Scale: 0.5
    - _ScrollSpeed: 0.05
    - _Shadow: 0.5
    - _ShadowRange: 0.5
    - _Smoothness: 0
    - _Smoothness1: 0
    - _SmoothnessTextureChannel: 0
    - _SpecularHighlights: 1
    - _Speed: 0
    - _SpeedUp: 1.11
    - _SpeedUpHit: 1.52
    - _SrcBlend: 1
    - _StarAmount: 5
    - _StarSize: 5.6
    - _StarSpacing: 55
    - _StartFrequency: 4
    - _Stretch: 1
    - _Surface: 0
    - _UseAlphaClipping: 0
    - _UseEmission: 0
    - _UseOcclusion: 0
    - _Useblack: 0
    - _Usedepth: 0
    - _VertexWarping: 0.5
    - _WaveSpeed: 0.2
    - _WorkflowMode: 1
    - _ZWrite: 1
    - __dirty: 1
    - _cutoff: 0
    - _lightShade: 0
    - _normalStrength: 0
    - _normalTileX: 1
    - _normalTileY: 1
    - _shadows: 0
    m_Colors:
    - Color_1BED5FDE: {r: 0.4, g: 0.4, b: 0.4, a: 1}
    - Color_1C935D77: {r: 0, g: 0, b: 0, a: 0}
    - Color_1e5013f0eb8d476bbd73aacfa44e325e: {r: 1, g: 0, b: 0, a: 1}
    - Color_22E92A60: {r: 0.9, g: 0.9, b: 0.9, a: 1}
    - Color_303CB00C: {r: 1, g: 1, b: 1, a: 1}
    - Color_3280E778: {r: 0.3529412, g: 0.8901961, b: 0.9254902, a: 0}
    - Color_330B4A1C: {r: 0.9622642, g: 0, b: 0.8638037, a: 0}
    - Color_3ae73e30328a4ce7ad6191bd24bf0b99: {r: 0.7912982, g: 1, b: 1, a: 1}
    - Color_5473DD65: {r: 1, g: 0.71237, b: 0, a: 1}
    - Color_573CED2: {r: 1, g: 0.32547617, b: 0, a: 0}
    - Color_5e3b1254577142638e8cb500f92e6bb9: {r: 0, g: 0, b: 0, a: 0}
    - Color_609FA73B: {r: 0.2519922, g: 0, b: 1, a: 0}
    - Color_60E99381: {r: 0.6226415, g: 0.6226415, b: 0.6226415, a: 0}
    - Color_6b5e91e7338c41d8a98b8ffde659566b: {r: 0.489, g: 0.6593334, b: 1, a: 1}
    - Color_7A904945: {r: 16, g: 4.52356, b: 2.26178, a: 0}
    - Color_8688F91D: {r: 0, g: 0, b: 0, a: 0}
    - Color_8B746F7F: {r: 1.720795, g: 1.243297, b: 0, a: 0}
    - Color_94797F71: {r: 0.9716981, g: 0.05958529, b: 0.05958529, a: 0}
    - Color_B23AA66E: {r: 2.670157, g: 0.11634838, b: 0, a: 0}
    - Color_C04639DD: {r: 1, g: 1, b: 1, a: 1}
    - Color_CBCC980C: {r: 238.05367, g: 354.15814, b: 1173.6599, a: 1}
    - Color_CC0AC8F4: {r: 0.29370618, g: 0, b: 0.39622638, a: 0}
    - Color_CFA0546A: {r: 1, g: 0.45118132, b: 0.43921566, a: 0}
    - Color_D0404BA9: {r: 3.701961, g: 0.1254902, b: 0.1254902, a: 0}
    - Color_D45997DB: {r: 5.278032, g: 2.400987, b: 1.283286, a: 0}
    - Color_DDEC20B4: {r: 1, g: 0, b: 0.6617761, a: 0}
    - Color_E8E78366: {r: 1, g: 1, b: 1, a: 1}
    - Color_F3D15EB9: {r: 1, g: 1, b: 1, a: 0}
    - Color_F785E49C: {r: 0.9433962, g: 0.7466911, b: 0, a: 0}
    - Color_FEFD7EC6: {r: 0.7696515, g: 0, b: 2.792157, a: 0}
    - Color_Primary: {r: 1, g: 1, b: 1, a: 0}
    - Color_Secondary: {r: 1, g: 1, b: 1, a: 0}
    - Color_fa19ccc73255475391efaad920d69ca8: {r: 0.1328684, g: 0.3613069, b: 0.597202,
        a: 1}
    - FlashColor: {r: 1, g: 0.02714704, b: 0, a: 0}
    - Fresnel_Color1: {r: 1, g: 0.1600157, b: 0, a: 0}
    - HitColor: {r: 1, g: 0.1273585, b: 0.29846457, a: 0}
    - TileVector: {r: 1, g: 1, b: 0, a: 0}
    - Toon_Ramp_Tint: {r: 0.49056596, g: 0.49056596, b: 0.49056596, a: 1}
    - Vector2_192DAD1F: {r: 1, g: 1, b: 0, a: 0}
    - Vector2_34B177CF: {r: 0, g: 0.5, b: 0, a: 0}
    - Vector2_577C3EA3: {r: 0, g: 1, b: 0, a: 0}
    - Vector2_6F26EC28: {r: 0, g: 0.5, b: 0, a: 0}
    - Vector2_888A61F3: {r: 0.6, g: 1, b: 0, a: 0}
    - Vector2_B717C4B2: {r: -0.1, g: -0.5, b: 0, a: 0}
    - Vector2_DD86904E: {r: 1, g: 1, b: 0, a: 0}
    - Vector2_E8C18715: {r: 1, g: 1, b: 0, a: 0}
    - Vector2_E98BF9C: {r: 0.1, g: -0.5, b: 0, a: 0}
    - Vector2_F182A647: {r: 0.1, g: -0.5, b: 0, a: 0}
    - Vector2_FDD2F441: {r: 0, g: -0.3, b: 0, a: 0}
    - Vector4_735B1826: {r: 1, g: 1, b: 0, a: 0}
    - Vector4_746667B8: {r: 1, g: 1, b: 0, a: 0}
    - _BaseColor: {r: 0.3490566, g: 0.31118727, b: 0.31118727, a: 1}
    - _Color: {r: 0.3584906, g: 0.21813814, b: 0.21813814, a: 1}
    - _DamageDirection: {r: -1, g: 0, b: 0, a: 0}
    - _EdgeColor: {r: 1, g: 0.5, b: 0, a: 0}
    - _EmissColor: {r: 0, g: 0, b: 0, a: 0}
    - _Emission: {r: 1, g: 1, b: 1, a: 1}
    - _EmissionColor: {r: 0, g: 0, b: 0, a: 1}
    - _EmissionMapChannelMask: {r: 1, g: 1, b: 1, a: 0}
    - _FlashColor: {r: 1, g: 0.1462264, b: 0.1462264, a: 0}
    - _FlashColour: {r: 0.33806515, g: 0.6698113, b: 0.66720945, a: 1}
    - _HitColor: {r: 1, g: 0.13614154, b: 0, a: 1}
    - _HitPos: {r: 2.31, g: 1.6, b: 1.16, a: 0.51}
    - _IndirectLightMinColor: {r: 0.09999997, g: 0.09999997, b: 0.09999997, a: 1}
    - _LightColor: {r: 0, g: 0, b: 0, a: 0}
    - _MainColor: {r: 0.2705882, g: 1, b: 0, a: 1}
    - _OcclusionMapChannelMask: {r: 1, g: 0, b: 0, a: 0}
    - _OutlineColor: {r: 0, g: 0, b: 0, a: 1}
    - _RimColor: {r: 0.17181383, g: 0.89338326, b: 0.9339623, a: 0}
    - _RimFalloff: {r: 0, g: 0, b: 0, a: 0}
    - _RimLightColor: {r: 0, g: 0.6132076, b: 0.4088051, a: 0}
    - _ShadowCol: {r: 0, g: 0, b: 0, a: 0}
    - _ShadowMapColor: {r: 1, g: 0.825, b: 0.78, a: 1}
    - _SpecColor: {r: 0.19999996, g: 0.19999996, b: 0.19999996, a: 1}
    - _StarColor: {r: 1, g: 0.9995908, b: 0, a: 1}
    - _Tint: {r: 1, g: 1, b: 0, a: 0}
    - _normalMapOffset: {r: 0, g: 0, b: 0, a: 0}
  m_BuildTextureStacks: []
--- !u!114 &1478211126144415924
MonoBehaviour:
  m_ObjectHideFlags: 11
  m_CorrespondingSourceObject: {fileID: 0}
  m_PrefabInstance: {fileID: 0}
  m_PrefabAsset: {fileID: 0}
  m_GameObject: {fileID: 0}
  m_Enabled: 1
  m_EditorHideFlags: 0
  m_Script: {fileID: 11500000, guid: d0353a89b1f911e48b9e16bdc9f2e058, type: 3}
  m_Name: 
  m_EditorClassIdentifier: 
  version: 7
