%YAML 1.1
%TAG !u! tag:unity3d.com,2011:
--- !u!114 &-9098299999854328525
MonoBehaviour:
  m_ObjectHideFlags: 11
  m_CorrespondingSourceObject: {fileID: 0}
  m_PrefabInstance: {fileID: 0}
  m_PrefabAsset: {fileID: 0}
  m_GameObject: {fileID: 0}
  m_Enabled: 1
  m_EditorHideFlags: 0
  m_Script: {fileID: 11500000, guid: d0353a89b1f911e48b9e16bdc9f2e058, type: 3}
  m_Name: 
  m_EditorClassIdentifier: 
  version: 7
--- !u!21 &2100000
Material:
  serializedVersion: 8
  m_ObjectHideFlags: 0
  m_CorrespondingSourceObject: {fileID: 0}
  m_PrefabInstance: {fileID: 0}
  m_PrefabAsset: {fileID: 0}
  m_Name: LavaShader01_PBR_River
  m_Shader: {fileID: -6465566751694194690, guid: 8f83798f307d95d43a4c88bb8f15d418,
    type: 3}
  m_Parent: {fileID: 0}
  m_ModifiedSerializedProperties: 0
  m_ValidKeywords: []
  m_InvalidKeywords: []
  m_LightmapFlags: 4
  m_EnableInstancingVariants: 0
  m_DoubleSidedGI: 0
  m_CustomRenderQueue: -1
  stringTagMap:
    MotionVector: User
  disabledShaderPasses:
  - MOTIONVECTORS
  m_LockedProperties: 
  m_SavedProperties:
    serializedVersion: 3
    m_TexEnvs:
    - Texture2D_52E8BC9D:
        m_Texture: {fileID: 2800000, guid: 594b19a2d4adf7f4fb2201530235acd7, type: 3}
        m_Scale: {x: 1, y: 1}
        m_Offset: {x: 0, y: 0}
    - Texture2D_87BE3230:
        m_Texture: {fileID: 2800000, guid: 7abc4a3e0daadb54db6e7cab23f2d71e, type: 3}
        m_Scale: {x: 1, y: 1}
        m_Offset: {x: 0, y: 0}
    - unity_Lightmaps:
        m_Texture: {fileID: 0}
        m_Scale: {x: 1, y: 1}
        m_Offset: {x: 0, y: 0}
    - unity_LightmapsInd:
        m_Texture: {fileID: 0}
        m_Scale: {x: 1, y: 1}
        m_Offset: {x: 0, y: 0}
    - unity_ShadowMasks:
        m_Texture: {fileID: 0}
        m_Scale: {x: 1, y: 1}
        m_Offset: {x: 0, y: 0}
    m_Ints: []
    m_Floats:
    - Vector1_186D625C: 0
    - Vector1_288BFE16: 1
    - Vector1_2B028AB1: 5
    - Vector1_2BEFA033: 1.84
    - Vector1_34E78D08: 0
    - Vector1_6086DCD3: -1.5
    - Vector1_680673D6: 50
    - Vector1_6E7FC3AB: 2
    - Vector1_72ECA59D: 0.5
    - Vector1_87F217EF: 20
    - Vector1_99151400: 1
    - Vector1_9B05CA75: 0.03
    - Vector1_B0347D61: 0
    - Vector1_E04BE0A: 2
    - _QueueControl: 0
    - _QueueOffset: 0
    m_Colors:
    - Color_29C03A27: {r: 220.26176, g: 46.358757, b: 19.604448, a: 1}
    - Color_481DC287: {r: 4.867144, g: 1.4524984, b: 0.40771887, a: 1}
    - Vector2_3C78BC63: {r: 0, g: 0.04, b: 0, a: 0}
    - Vector2_3EBDED93: {r: 0, g: 0.09, b: 0, a: 0}
    - Vector2_4DB48203: {r: 0, g: 0.05, b: 0, a: 0}
    - Vector2_6134D0EE: {r: 0, g: 1, b: 0, a: 0}
    - Vector2_73A43FDB: {r: 0, g: 0.36, b: 0, a: 0}
    - Vector2_BA421C40: {r: 1.5, g: 8, b: 0, a: 0}
    - Vector2_C0F58154: {r: 0, g: 0.03, b: 0, a: 0}
    - Vector2_F761434B: {r: 0, g: 0, b: 0, a: 0}
  m_BuildTextureStacks: []
