%YAML 1.1
%TAG !u! tag:unity3d.com,2011:
--- !u!21 &2100000
Material:
  serializedVersion: 8
  m_ObjectHideFlags: 0
  m_CorrespondingSourceObject: {fileID: 0}
  m_PrefabInstance: {fileID: 0}
  m_PrefabAsset: {fileID: 0}
  m_Name: MeshEffect01_02_PBR
  m_Shader: {fileID: -6465566751694194690, guid: d69c0e3d07b132b469d2301f0e177ce4,
    type: 3}
  m_Parent: {fileID: 0}
  m_ModifiedSerializedProperties: 0
  m_ValidKeywords: []
  m_InvalidKeywords: []
  m_LightmapFlags: 4
  m_EnableInstancingVariants: 0
  m_DoubleSidedGI: 0
  m_CustomRenderQueue: -1
  stringTagMap: {}
  disabledShaderPasses: []
  m_LockedProperties: 
  m_SavedProperties:
    serializedVersion: 3
    m_TexEnvs:
    - Texture2D_11A415A7:
        m_Texture: {fileID: 2800000, guid: d726cdb4bc6a76b40a1a55a61f399eba, type: 3}
        m_Scale: {x: 1, y: 1}
        m_Offset: {x: 0, y: 0}
    - Texture2D_64899250:
        m_Texture: {fileID: 2800000, guid: ee2125694b0db2043b26a65dac23e45f, type: 3}
        m_Scale: {x: 1, y: 1}
        m_Offset: {x: 0, y: 0}
    - Texture2D_B0F2A366:
        m_Texture: {fileID: 2800000, guid: e5afad012fdd8df47b41db075dd03686, type: 3}
        m_Scale: {x: 1, y: 1}
        m_Offset: {x: 0, y: 0}
    - unity_Lightmaps:
        m_Texture: {fileID: 0}
        m_Scale: {x: 1, y: 1}
        m_Offset: {x: 0, y: 0}
    - unity_LightmapsInd:
        m_Texture: {fileID: 0}
        m_Scale: {x: 1, y: 1}
        m_Offset: {x: 0, y: 0}
    - unity_ShadowMasks:
        m_Texture: {fileID: 0}
        m_Scale: {x: 1, y: 1}
        m_Offset: {x: 0, y: 0}
    m_Ints: []
    m_Floats:
    - Vector1_1DA065AB: 1.5
    - Vector1_460A08CE: 20
    - Vector1_63552A71: 0.5
    - Vector1_80704D48: 0.55
    - Vector1_B1BD7CBA: 30
    - Vector1_D1C5E151: 0.5
    - Vector1_D362A57C: 0.5
    - Vector1_D7B502F0: 8
    - Vector1_F2240E9F: 1.5
    - _QueueControl: 0
    - _QueueOffset: 0
    m_Colors:
    - Color_6B9A0C58: {r: 1, g: 1, b: 1, a: 1}
    - Color_750FFCCB: {r: 0.603, g: 0.603, b: 0.603, a: 1}
    - Color_7FBEC34D: {r: 8.47419, g: 1.6278657, b: 0, a: 1}
    - Color_B154983C: {r: 1.4142135, g: 0.17057584, b: 0, a: 1}
    - Vector2_1162408B: {r: 0, g: 0.3, b: 0, a: 0}
    - Vector2_40266A0F: {r: 0, g: 0.2, b: 0, a: 0}
  m_BuildTextureStacks: []
--- !u!114 &8533043533523421343
MonoBehaviour:
  m_ObjectHideFlags: 11
  m_CorrespondingSourceObject: {fileID: 0}
  m_PrefabInstance: {fileID: 0}
  m_PrefabAsset: {fileID: 0}
  m_GameObject: {fileID: 0}
  m_Enabled: 1
  m_EditorHideFlags: 0
  m_Script: {fileID: 11500000, guid: d0353a89b1f911e48b9e16bdc9f2e058, type: 3}
  m_Name: 
  m_EditorClassIdentifier: 
  version: 7
