%YAML 1.1
%TAG !u! tag:unity3d.com,2011:
--- !u!114 &-8241695312793414321
MonoBehaviour:
  m_ObjectHideFlags: 11
  m_CorrespondingSourceObject: {fileID: 0}
  m_PrefabInstance: {fileID: 0}
  m_PrefabAsset: {fileID: 0}
  m_GameObject: {fileID: 0}
  m_Enabled: 1
  m_EditorHideFlags: 0
  m_Script: {fileID: 11500000, guid: d0353a89b1f911e48b9e16bdc9f2e058, type: 3}
  m_Name: 
  m_EditorClassIdentifier: 
  version: 7
--- !u!21 &2100000
Material:
  serializedVersion: 8
  m_ObjectHideFlags: 0
  m_CorrespondingSourceObject: {fileID: 0}
  m_PrefabInstance: {fileID: 0}
  m_PrefabAsset: {fileID: 0}
  m_Name: Placeholder
  m_Shader: {fileID: -6465566751694194690, guid: 4c283fbcd248e094a94145648f556857,
    type: 3}
  m_Parent: {fileID: 0}
  m_ModifiedSerializedProperties: 0
  m_ValidKeywords: []
  m_InvalidKeywords: []
  m_LightmapFlags: 2
  m_EnableInstancingVariants: 0
  m_DoubleSidedGI: 0
  m_CustomRenderQueue: -1
  stringTagMap: {}
  disabledShaderPasses: []
  m_LockedProperties: 
  m_SavedProperties:
    serializedVersion: 3
    m_TexEnvs:
    - unity_Lightmaps:
        m_Texture: {fileID: 0}
        m_Scale: {x: 1, y: 1}
        m_Offset: {x: 0, y: 0}
    - unity_LightmapsInd:
        m_Texture: {fileID: 0}
        m_Scale: {x: 1, y: 1}
        m_Offset: {x: 0, y: 0}
    - unity_ShadowMasks:
        m_Texture: {fileID: 0}
        m_Scale: {x: 1, y: 1}
        m_Offset: {x: 0, y: 0}
    m_Ints: []
    m_Floats:
    - _Bottom_Line: 0.603
    - _Metallic: 0.568
    - _QueueControl: 0
    - _QueueOffset: 0
    - _Smoothness: 0.534
    - _Top_Line: 0.747
    m_Colors:
    - _Base_Color: {r: 0.11355187, g: 2.23507, b: 4.3376827, a: 1}
    - _Bottom_Color: {r: 6.2543077, g: 1.8664688, b: 4.4740977, a: 1}
    - _Top_Color: {r: 2.9960785, g: 2.682353, b: 0.5019608, a: 1}
  m_BuildTextureStacks: []
