%YAML 1.1
%TAG !u! tag:unity3d.com,2011:
--- !u!21 &2100000
Material:
  serializedVersion: 6
  m_ObjectHideFlags: 0
  m_CorrespondingSourceObject: {fileID: 0}
  m_PrefabInstance: {fileID: 0}
  m_PrefabAsset: {fileID: 0}
  m_Name: PolyToots_ASE_FrostIcicles
  m_Shader: {fileID: 4800000, guid: fd11f1d64acf39741a49486da3310ad4, type: 3}
  m_ShaderKeywords: 
  m_LightmapFlags: 4
  m_EnableInstancingVariants: 0
  m_DoubleSidedGI: 0
  m_CustomRenderQueue: -1
  stringTagMap: {}
  disabledShaderPasses: []
  m_SavedProperties:
    serializedVersion: 3
    m_TexEnvs:
    - _BaseNormals:
        m_Texture: {fileID: 0}
        m_Scale: {x: 1, y: 1}
        m_Offset: {x: 0, y: 0}
    - _FrostNormals:
        m_Texture: {fileID: 0}
        m_Scale: {x: 1, y: 1}
        m_Offset: {x: 0, y: 0}
    - _FrostTexture:
        m_Texture: {fileID: 2800000, guid: 887dc2cac758a6244aaf6232d9da1054, type: 3}
        m_Scale: {x: 1, y: 1}
        m_Offset: {x: 0, y: 0}
    - _IcicleMask:
        m_Texture: {fileID: 2800000, guid: fc9a78a124c0ffc45ba8fd26893f59dd, type: 3}
        m_Scale: {x: 1, y: 1}
        m_Offset: {x: 0, y: 0}
    - _MainTex:
        m_Texture: {fileID: 2800000, guid: 5b992df5568671b448ffcb9735423e6d, type: 3}
        m_Scale: {x: 1, y: 1}
        m_Offset: {x: 0, y: 0}
    - _texcoord:
        m_Texture: {fileID: 0}
        m_Scale: {x: 1, y: 1}
        m_Offset: {x: 0, y: 0}
    m_Ints: []
    m_Floats:
    - _AlphaCutoff: 0.5
    - _IceSlider: 0
    - _IcicleLength: 1
    - _IcicleMaskTile: 0.346
    - _TessMax: 40
    - _TessMin: 2
    - _TessValue: 4
    m_Colors:
    - _EmissionColor: {r: 1, g: 1, b: 1, a: 1}
    - _FrostTint: {r: 0.8254717, g: 0.99658203, b: 1, a: 0}
  m_BuildTextureStacks: []
