%YAML 1.1
%TAG !u! tag:unity3d.com,2011:
--- !u!21 &2100000
Material:
  serializedVersion: 6
  m_ObjectHideFlags: 0
  m_CorrespondingSourceObject: {fileID: 0}
  m_PrefabInstance: {fileID: 0}
  m_PrefabAsset: {fileID: 0}
  m_Name: Somnus_Sand
  m_Shader: {fileID: 4800000, guid: 3b2af8707298d534fa47bcce8b04b1e6, type: 3}
  m_ShaderKeywords: 
  m_LightmapFlags: 4
  m_EnableInstancingVariants: 0
  m_DoubleSidedGI: 0
  m_CustomRenderQueue: -1
  stringTagMap: {}
  disabledShaderPasses: []
  m_SavedProperties:
    serializedVersion: 3
    m_TexEnvs: []
    m_Floats:
    - _AlphaCutoff: 0.5
    - _Blend: 0.51
    - _DisplacementStrength: 0
    - _DistortionScale: 5.9
    - _SandScale: 14.56
    - _SandScaleSquash: 1
    - _TessEdgeLength: 2
    - _TessMax: 72.68
    - _TessMin: 0
    - _TessValue: 7.9
    - _UnlimitedDisplacementStrength: 0.2
    m_Colors:
    - _EmissionColor: {r: 1, g: 1, b: 1, a: 1}
    - _SandColor: {r: 0.6603774, g: 0.5671266, b: 0.4516732, a: 0}
  m_BuildTextureStacks: []
