%YAML 1.1
%TAG !u! tag:unity3d.com,2011:
--- !u!1001 &2232399718638627487
PrefabInstance:
  m_ObjectHideFlags: 0
  serializedVersion: 2
  m_Modification:
    serializedVersion: 3
    m_TransformParent: {fileID: 0}
    m_Modifications:
    - target: {fileID: 1205267271218789398, guid: 6e730ee76a236d149848aa28f5061e5c,
        type: 3}
      propertyPath: m_RootOrder
      value: 0
      objectReference: {fileID: 0}
    - target: {fileID: 1205267271218789398, guid: 6e730ee76a236d149848aa28f5061e5c,
        type: 3}
      propertyPath: m_LocalPosition.x
      value: 0
      objectReference: {fileID: 0}
    - target: {fileID: 1205267271218789398, guid: 6e730ee76a236d149848aa28f5061e5c,
        type: 3}
      propertyPath: m_LocalPosition.y
      value: 0
      objectReference: {fileID: 0}
    - target: {fileID: 1205267271218789398, guid: 6e730ee76a236d149848aa28f5061e5c,
        type: 3}
      propertyPath: m_LocalPosition.z
      value: 0
      objectReference: {fileID: 0}
    - target: {fileID: 1205267271218789398, guid: 6e730ee76a236d149848aa28f5061e5c,
        type: 3}
      propertyPath: m_LocalRotation.w
      value: 1
      objectReference: {fileID: 0}
    - target: {fileID: 1205267271218789398, guid: 6e730ee76a236d149848aa28f5061e5c,
        type: 3}
      propertyPath: m_LocalRotation.x
      value: 0
      objectReference: {fileID: 0}
    - target: {fileID: 1205267271218789398, guid: 6e730ee76a236d149848aa28f5061e5c,
        type: 3}
      propertyPath: m_LocalRotation.y
      value: 0
      objectReference: {fileID: 0}
    - target: {fileID: 1205267271218789398, guid: 6e730ee76a236d149848aa28f5061e5c,
        type: 3}
      propertyPath: m_LocalRotation.z
      value: 0
      objectReference: {fileID: 0}
    - target: {fileID: 1205267271218789398, guid: 6e730ee76a236d149848aa28f5061e5c,
        type: 3}
      propertyPath: m_LocalEulerAnglesHint.x
      value: 0
      objectReference: {fileID: 0}
    - target: {fileID: 1205267271218789398, guid: 6e730ee76a236d149848aa28f5061e5c,
        type: 3}
      propertyPath: m_LocalEulerAnglesHint.y
      value: 0
      objectReference: {fileID: 0}
    - target: {fileID: 1205267271218789398, guid: 6e730ee76a236d149848aa28f5061e5c,
        type: 3}
      propertyPath: m_LocalEulerAnglesHint.z
      value: 0
      objectReference: {fileID: 0}
    - target: {fileID: 2801979946316107269, guid: 6e730ee76a236d149848aa28f5061e5c,
        type: 3}
      propertyPath: m_Name
      value: Enemy_HugeTroll
      objectReference: {fileID: 0}
    - target: {fileID: 4044791007691330408, guid: 6e730ee76a236d149848aa28f5061e5c,
        type: 3}
      propertyPath: m_Materials.Array.data[0]
      value: 
      objectReference: {fileID: 2100000, guid: 1a176da83822f824bb29f2f5b8573a9d, type: 2}
    - target: {fileID: 8195936877591315559, guid: 6e730ee76a236d149848aa28f5061e5c,
        type: 3}
      propertyPath: EvasionFX
      value: 
      objectReference: {fileID: 7694598875408499460, guid: 935ef7c5f7cd2d14dbc85476e1ebf43f,
        type: 3}
    - target: {fileID: 8195936877591315559, guid: 6e730ee76a236d149848aa28f5061e5c,
        type: 3}
      propertyPath: Renderers.Array.data[0]
      value: 
      objectReference: {fileID: 2799805525674555895}
    - target: {fileID: 8851398771712148810, guid: 6e730ee76a236d149848aa28f5061e5c,
        type: 3}
      propertyPath: character
      value: 
      objectReference: {fileID: 11400000, guid: 5ac51c92faa2d5b4ea19c2f3b1233878,
        type: 2}
    m_RemovedComponents:
    - {fileID: 4665727105278003053, guid: 6e730ee76a236d149848aa28f5061e5c, type: 3}
    - {fileID: 5801592033039687349, guid: 6e730ee76a236d149848aa28f5061e5c, type: 3}
    m_RemovedGameObjects: []
    m_AddedGameObjects: []
    m_AddedComponents:
    - targetCorrespondingSourceObject: {fileID: 2801979946316107269, guid: 6e730ee76a236d149848aa28f5061e5c,
        type: 3}
      insertIndex: -1
      addedObject: {fileID: 6852143767247293265}
  m_SourcePrefab: {fileID: 100100000, guid: 6e730ee76a236d149848aa28f5061e5c, type: 3}
--- !u!137 &2799805525674555895 stripped
SkinnedMeshRenderer:
  m_CorrespondingSourceObject: {fileID: 4044791007691330408, guid: 6e730ee76a236d149848aa28f5061e5c,
    type: 3}
  m_PrefabInstance: {fileID: 2232399718638627487}
  m_PrefabAsset: {fileID: 0}
--- !u!1 &4042458253141189786 stripped
GameObject:
  m_CorrespondingSourceObject: {fileID: 2801979946316107269, guid: 6e730ee76a236d149848aa28f5061e5c,
    type: 3}
  m_PrefabInstance: {fileID: 2232399718638627487}
  m_PrefabAsset: {fileID: 0}
--- !u!114 &6852143767247293265
MonoBehaviour:
  m_ObjectHideFlags: 0
  m_CorrespondingSourceObject: {fileID: 0}
  m_PrefabInstance: {fileID: 0}
  m_PrefabAsset: {fileID: 0}
  m_GameObject: {fileID: 4042458253141189786}
  m_Enabled: 1
  m_EditorHideFlags: 0
  m_Script: {fileID: 11500000, guid: 57d8f053bbe47414d8f679b522c07b20, type: 3}
  m_Name: 
  m_EditorClassIdentifier: 
