%YAML 1.1
%TAG !u! tag:unity3d.com,2011:
--- !u!114 &-5250587511022046292
MonoBehaviour:
  m_ObjectHideFlags: 11
  m_CorrespondingSourceObject: {fileID: 0}
  m_PrefabInstance: {fileID: 0}
  m_PrefabAsset: {fileID: 0}
  m_GameObject: {fileID: 0}
  m_Enabled: 1
  m_EditorHideFlags: 0
  m_Script: {fileID: 11500000, guid: d0353a89b1f911e48b9e16bdc9f2e058, type: 3}
  m_Name: 
  m_EditorClassIdentifier: 
  version: 7
--- !u!21 &2100000
Material:
  serializedVersion: 8
  m_ObjectHideFlags: 0
  m_CorrespondingSourceObject: {fileID: 0}
  m_PrefabInstance: {fileID: 0}
  m_PrefabAsset: {fileID: 0}
  m_Name: Riper_wings
  m_Shader: {fileID: -6465566751694194690, guid: d8c4492bc6032b84fbe18825bf678410,
    type: 3}
  m_Parent: {fileID: 0}
  m_ModifiedSerializedProperties: 0
  m_ValidKeywords: []
  m_InvalidKeywords: []
  m_LightmapFlags: 4
  m_EnableInstancingVariants: 0
  m_DoubleSidedGI: 0
  m_CustomRenderQueue: -1
  stringTagMap: {}
  disabledShaderPasses: []
  m_LockedProperties: 
  m_SavedProperties:
    serializedVersion: 3
    m_TexEnvs:
    - Texture2D_516AB38F:
        m_Texture: {fileID: 0}
        m_Scale: {x: 1, y: 1}
        m_Offset: {x: 0, y: 0}
    - Texture2D_C53837FD:
        m_Texture: {fileID: 0}
        m_Scale: {x: 1, y: 1}
        m_Offset: {x: 0, y: 0}
    - unity_Lightmaps:
        m_Texture: {fileID: 0}
        m_Scale: {x: 1, y: 1}
        m_Offset: {x: 0, y: 0}
    - unity_LightmapsInd:
        m_Texture: {fileID: 0}
        m_Scale: {x: 1, y: 1}
        m_Offset: {x: 0, y: 0}
    - unity_ShadowMasks:
        m_Texture: {fileID: 0}
        m_Scale: {x: 1, y: 1}
        m_Offset: {x: 0, y: 0}
    m_Ints: []
    m_Floats:
    - Vector1_28E27064: 0
    - Vector1_31FEDFD9: 0.02
    - Vector1_4480B40E: 0.5
    - Vector1_6AFBEDFA: 0.03
    - Vector1_990003B3: 30
    - Vector1_A0125159: 0.5
    - Vector1_A1D0D140: 0
    - Vector1_B514299D: -0.15
    - Vector1_EFE96326: 0.05
    - _QueueControl: 0
    - _QueueOffset: 0
    m_Colors:
    - Color_150DD57E: {r: 2, g: 2, b: 2, a: 0}
    - Color_9E1D2813: {r: 0.023529412, g: 0.61960787, b: 0.61960787, a: 0}
    - Color_C5953860: {r: 0, g: 0.14775759, b: 1.4980391, a: 0}
    - Color_CD09CF1: {r: 0, g: 1.1259967, b: 1.396078, a: 0}
    - Vector2_1FA87274: {r: 3, g: 3, b: 0, a: 0}
    - Vector4_28FAE5A3: {r: 0.8, g: 0.4, b: 0.1, a: 0.5}
  m_BuildTextureStacks: []
