%YAML 1.1
%TAG !u! tag:unity3d.com,2011:
--- !u!114 &-875913049290411523
MonoBehaviour:
  m_ObjectHideFlags: 11
  m_CorrespondingSourceObject: {fileID: 0}
  m_PrefabInstance: {fileID: 0}
  m_PrefabAsset: {fileID: 0}
  m_GameObject: {fileID: 0}
  m_Enabled: 1
  m_EditorHideFlags: 0
  m_Script: {fileID: 11500000, guid: d0353a89b1f911e48b9e16bdc9f2e058, type: 3}
  m_Name: 
  m_EditorClassIdentifier: 
  version: 7
--- !u!21 &2100000
Material:
  serializedVersion: 8
  m_ObjectHideFlags: 0
  m_CorrespondingSourceObject: {fileID: 0}
  m_PrefabInstance: {fileID: 0}
  m_PrefabAsset: {fileID: 0}
  m_Name: Shader Graphs_SH_Distortion
  m_Shader: {fileID: -6465566751694194690, guid: f2e0ab2955a4fdd46b8c73f3f6c61504, type: 3}
  m_Parent: {fileID: 0}
  m_ModifiedSerializedProperties: 0
  m_ValidKeywords:
  - _SURFACE_TYPE_TRANSPARENT
  m_InvalidKeywords: []
  m_LightmapFlags: 4
  m_EnableInstancingVariants: 1
  m_DoubleSidedGI: 1
  m_CustomRenderQueue: 3000
  stringTagMap:
    RenderType: Transparent
  disabledShaderPasses:
  - SHADOWCASTER
  m_LockedProperties: 
  m_SavedProperties:
    serializedVersion: 3
    m_TexEnvs:
    - _Distortion_Texture:
        m_Texture: {fileID: 2800000, guid: efa4c65333fe6f04994d435fcfea47f4, type: 3}
        m_Scale: {x: 1, y: 1}
        m_Offset: {x: 0, y: 0}
    - _Noise_Texture:
        m_Texture: {fileID: 2800000, guid: f080df0f5ec0b4946ac6395d48813236, type: 3}
        m_Scale: {x: 1, y: 1}
        m_Offset: {x: 0, y: 0}
    - _SampleTexture2D_24c7236b23b540738f66f517d90f5d43_Texture_1:
        m_Texture: {fileID: 2800000, guid: 6be77f703088322418ea7fe9b8cd6f1a, type: 3}
        m_Scale: {x: 1, y: 1}
        m_Offset: {x: 0, y: 0}
    - unity_Lightmaps:
        m_Texture: {fileID: 0}
        m_Scale: {x: 1, y: 1}
        m_Offset: {x: 0, y: 0}
    - unity_LightmapsInd:
        m_Texture: {fileID: 0}
        m_Scale: {x: 1, y: 1}
        m_Offset: {x: 0, y: 0}
    - unity_ShadowMasks:
        m_Texture: {fileID: 0}
        m_Scale: {x: 1, y: 1}
        m_Offset: {x: 0, y: 0}
    m_Ints: []
    m_Floats:
    - _Alpha: 1
    - _AlphaClip: 0
    - _AlphaToMask: 0
    - _Blend: 0
    - _CastShadows: 0
    - _Cull: 2
    - _DstBlend: 10
    - _HeatDistortion: 1
    - _QueueControl: 0
    - _QueueOffset: 0
    - _SrcBlend: 5
    - _Surface: 1
    - _ZTest: 4
    - _ZWrite: 1
    - _ZWriteControl: 1
    m_Colors: []
  m_BuildTextureStacks: []
