%YAML 1.1
%TAG !u! tag:unity3d.com,2011:
--- !u!21 &2100000
Material:
  serializedVersion: 8
  m_ObjectHideFlags: 0
  m_CorrespondingSourceObject: {fileID: 0}
  m_PrefabInstance: {fileID: 0}
  m_PrefabAsset: {fileID: 0}
  m_Name: FX_Drain_2
  m_Shader: {fileID: -6465566751694194690, guid: 2399999df20aabf44b6809ddec9b7245,
    type: 3}
  m_Parent: {fileID: 0}
  m_ModifiedSerializedProperties: 0
  m_ValidKeywords: []
  m_InvalidKeywords: []
  m_LightmapFlags: 4
  m_EnableInstancingVariants: 0
  m_DoubleSidedGI: 0
  m_CustomRenderQueue: 3010
  stringTagMap: {}
  disabledShaderPasses: []
  m_LockedProperties: 
  m_SavedProperties:
    serializedVersion: 3
    m_TexEnvs:
    - Texture2D_516AB38F:
        m_Texture: {fileID: 0}
        m_Scale: {x: 1, y: 1}
        m_Offset: {x: 0, y: 0}
    - Texture2D_C53837FD:
        m_Texture: {fileID: 0}
        m_Scale: {x: 1, y: 1}
        m_Offset: {x: 0, y: 0}
    - _Layer1_Texture:
        m_Texture: {fileID: 2800000, guid: cb92a6a09f58cd14896c467f8658ce77, type: 3}
        m_Scale: {x: 1, y: 1}
        m_Offset: {x: 0, y: 0}
    - _Layer2_Texture:
        m_Texture: {fileID: 2800000, guid: 8594ed58f4892584fbbe608678dcef72, type: 3}
        m_Scale: {x: 1, y: 1}
        m_Offset: {x: 0, y: 0}
    - _Layer3_Texture:
        m_Texture: {fileID: 2800000, guid: 8594ed58f4892584fbbe608678dcef72, type: 3}
        m_Scale: {x: 1, y: 1}
        m_Offset: {x: 0, y: 0}
    - _Mask:
        m_Texture: {fileID: 2800000, guid: 05ea8503afe95c645b721486aa982bff, type: 3}
        m_Scale: {x: 1, y: 1}
        m_Offset: {x: 0, y: 0}
    - unity_Lightmaps:
        m_Texture: {fileID: 0}
        m_Scale: {x: 1, y: 1}
        m_Offset: {x: 0, y: 0}
    - unity_LightmapsInd:
        m_Texture: {fileID: 0}
        m_Scale: {x: 1, y: 1}
        m_Offset: {x: 0, y: 0}
    - unity_ShadowMasks:
        m_Texture: {fileID: 0}
        m_Scale: {x: 1, y: 1}
        m_Offset: {x: 0, y: 0}
    m_Ints: []
    m_Floats:
    - Vector1_28E27064: 0.32
    - Vector1_31FEDFD9: -0.01
    - Vector1_4480B40E: 0
    - Vector1_6AFBEDFA: 0.047
    - Vector1_990003B3: 2
    - Vector1_A0125159: 0.5
    - Vector1_A1D0D140: 0
    - Vector1_B514299D: 2
    - Vector1_EFE96326: 0.058
    - _AlphaBoost: 3.42
    - _QueueControl: 1
    - _QueueOffset: 0
    m_Colors:
    - Color_150DD57E: {r: 0, g: 0, b: 0, a: 0}
    - Color_9E1D2813: {r: 0.2924528, g: 0, b: 0.005847935, a: 0}
    - Color_C5953860: {r: 0.88165563, g: 0, b: 0.056356285, a: 0}
    - Color_CD09CF1: {r: 0.20802517, g: 0, b: 1.396078, a: 0}
    - Vector2_1FA87274: {r: 3, g: 3, b: 0, a: 0}
    - Vector4_28FAE5A3: {r: 1, g: 1, b: 0, a: 0}
    - _Color: {r: 13.928808, g: 0, b: 0, a: 1}
    - _Layer1_Speed: {r: 1.5, g: 0, b: 0, a: 0}
    - _Layer1_Tiling: {r: 2, g: 1, b: 0, a: 0}
    - _Layer2_Speed: {r: 0, g: 1, b: 0, a: 0}
    - _Layer2_Tiling: {r: 1, g: 1, b: 0, a: 0}
    - _Layer3_Speed: {r: 0, g: 0, b: 0, a: 0}
    - _Layer3_Tiling: {r: 1, g: 1, b: 0, a: 0}
  m_BuildTextureStacks: []
--- !u!114 &2488347991612788797
MonoBehaviour:
  m_ObjectHideFlags: 11
  m_CorrespondingSourceObject: {fileID: 0}
  m_PrefabInstance: {fileID: 0}
  m_PrefabAsset: {fileID: 0}
  m_GameObject: {fileID: 0}
  m_Enabled: 1
  m_EditorHideFlags: 0
  m_Script: {fileID: 11500000, guid: d0353a89b1f911e48b9e16bdc9f2e058, type: 3}
  m_Name: 
  m_EditorClassIdentifier: 
  version: 7
