%YAML 1.1
%TAG !u! tag:unity3d.com,2011:
--- !u!21 &2100000
Material:
  serializedVersion: 8
  m_ObjectHideFlags: 0
  m_CorrespondingSourceObject: {fileID: 0}
  m_PrefabInstance: {fileID: 0}
  m_PrefabAsset: {fileID: 0}
  m_Name: SandDunes
  m_Shader: {fileID: -6465566751694194690, guid: 0ad987dd69245274eacba66170314bf9,
    type: 3}
  m_Parent: {fileID: 0}
  m_ModifiedSerializedProperties: 0
  m_ValidKeywords: []
  m_InvalidKeywords: []
  m_LightmapFlags: 4
  m_EnableInstancingVariants: 0
  m_DoubleSidedGI: 0
  m_CustomRenderQueue: -1
  stringTagMap: {}
  disabledShaderPasses: []
  m_LockedProperties: 
  m_SavedProperties:
    serializedVersion: 3
    m_TexEnvs:
    - unity_Lightmaps:
        m_Texture: {fileID: 0}
        m_Scale: {x: 1, y: 1}
        m_Offset: {x: 0, y: 0}
    - unity_LightmapsInd:
        m_Texture: {fileID: 0}
        m_Scale: {x: 1, y: 1}
        m_Offset: {x: 0, y: 0}
    - unity_ShadowMasks:
        m_Texture: {fileID: 0}
        m_Scale: {x: 1, y: 1}
        m_Offset: {x: 0, y: 0}
    m_Ints: []
    m_Floats:
    - DistortAmplitude: 1.58
    - DistortNoisePeriod: 3.16
    - GrainColorBlend: 0.42
    - GrainPeriod: 143.37
    - NormalStrength: 1
    - PolygonSides: 5.54
    - SineAmplitude: 0.21
    - SineFrequency: 8.8
    - SineRotation: 10.04
    - SubstrateDuneHeightMax: 0.167
    - SubstrateGrainHeightMax: 0.226
    - SubstrateTightening: 1.49
    - UVScale: 1
    - _QueueControl: 0
    - _QueueOffset: 0
    m_Colors:
    - SandHighColor: {r: 0.745283, g: 0.6684681, b: 0.34029898, a: 0}
    - SandLowColor: {r: 0.8396226, g: 0.762364, b: 0.46258444, a: 0}
    - SubstrateColor: {r: 1, g: 0.36117405, b: 0, a: 0}
    - UVTiling: {r: 0.2, g: 5.6, b: 0, a: 0}
  m_BuildTextureStacks: []
--- !u!114 &8575831259608677540
MonoBehaviour:
  m_ObjectHideFlags: 11
  m_CorrespondingSourceObject: {fileID: 0}
  m_PrefabInstance: {fileID: 0}
  m_PrefabAsset: {fileID: 0}
  m_GameObject: {fileID: 0}
  m_Enabled: 1
  m_EditorHideFlags: 0
  m_Script: {fileID: 11500000, guid: d0353a89b1f911e48b9e16bdc9f2e058, type: 3}
  m_Name: 
  m_EditorClassIdentifier: 
  version: 7
