%YAML 1.1
%TAG !u! tag:unity3d.com,2011:
--- !u!78 &1
TagManager:
  serializedVersion: 2
  tags:
  - Enemy
  - Interactable
  - SpawnPoint
  - Trackable
  - PlayerCharacterAnchorPoint
  - Environment
  layers:
  - Default
  - TransparentFX
  - Ignore Raycast
  - Player
  - Water
  - UI
  - Enemy
  - Environment
  - PlayerProjectile
  - EnemyProjectile
  - Trigger
  - Actors
  - Interactable
  - Ground
  - MoveableObject
  - 
  - 
  - 
  - 
  - 
  - 
  - 
  - 
  - 
  - 
  - 
  - 
  - 
  - 
  - 
  - 
  - 
  m_SortingLayers:
  - name: Default
    uniqueID: 0
    locked: 0
