%YAML 1.1
%TAG !u! tag:unity3d.com,2011:
--- !u!114 &-1600521145365872872
MonoBehaviour:
  m_ObjectHideFlags: 11
  m_CorrespondingSourceObject: {fileID: 0}
  m_PrefabInstance: {fileID: 0}
  m_PrefabAsset: {fileID: 0}
  m_GameObject: {fileID: 0}
  m_Enabled: 1
  m_EditorHideFlags: 0
  m_Script: {fileID: 11500000, guid: d0353a89b1f911e48b9e16bdc9f2e058, type: 3}
  m_Name: 
  m_EditorClassIdentifier: 
  version: 7
--- !u!21 &2100000
Material:
  serializedVersion: 8
  m_ObjectHideFlags: 0
  m_CorrespondingSourceObject: {fileID: 0}
  m_PrefabInstance: {fileID: 0}
  m_PrefabAsset: {fileID: 0}
  m_Name: Shader Graphs_NEW_Fire_Doblesided
  m_Shader: {fileID: -6465566751694194690, guid: d8c4492bc6032b84fbe18825bf678410,
    type: 3}
  m_Parent: {fileID: 0}
  m_ModifiedSerializedProperties: 0
  m_ValidKeywords: []
  m_InvalidKeywords: []
  m_LightmapFlags: 4
  m_EnableInstancingVariants: 0
  m_DoubleSidedGI: 0
  m_CustomRenderQueue: -1
  stringTagMap: {}
  disabledShaderPasses: []
  m_LockedProperties: 
  m_SavedProperties:
    serializedVersion: 3
    m_TexEnvs:
    - Texture2D_516AB38F:
        m_Texture: {fileID: 10300, guid: 0000000000000000f000000000000000, type: 0}
        m_Scale: {x: 1, y: 1}
        m_Offset: {x: 0, y: 0}
    - unity_Lightmaps:
        m_Texture: {fileID: 0}
        m_Scale: {x: 1, y: 1}
        m_Offset: {x: 0, y: 0}
    - unity_LightmapsInd:
        m_Texture: {fileID: 0}
        m_Scale: {x: 1, y: 1}
        m_Offset: {x: 0, y: 0}
    - unity_ShadowMasks:
        m_Texture: {fileID: 0}
        m_Scale: {x: 1, y: 1}
        m_Offset: {x: 0, y: 0}
    m_Ints: []
    m_Floats:
    - Vector1_28E27064: 0.2
    - Vector1_31FEDFD9: 0.1
    - Vector1_4480B40E: 0.5
    - Vector1_6AFBEDFA: 0.015
    - Vector1_990003B3: 30
    - Vector1_A1D0D140: 1
    - Vector1_B514299D: 0.5
    - Vector1_EFE96326: 0.05
    - _QueueControl: 0
    - _QueueOffset: 0
    m_Colors:
    - Color_150DD57E: {r: 0.34901962, g: 0.029237246, b: 0, a: 0}
    - Color_9E1D2813: {r: 5.2164745, g: 1.2563237, b: 0, a: 0}
    - Color_C5953860: {r: 5.2780313, g: 0.5543375, b: 0, a: 0}
    - Color_CD09CF1: {r: 2.7921557, g: 1.4618617, b: 0, a: 0}
    - Vector4_28FAE5A3: {r: 1, g: 0.37, b: 0, a: -0.5}
  m_BuildTextureStacks: []
