%YAML 1.1
%TAG !u! tag:unity3d.com,2011:
--- !u!114 &-8335433062019320594
MonoBehaviour:
  m_ObjectHideFlags: 3
  m_CorrespondingSourceObject: {fileID: 0}
  m_PrefabInstance: {fileID: 0}
  m_PrefabAsset: {fileID: 0}
  m_GameObject: {fileID: 0}
  m_Enabled: 1
  m_EditorHideFlags: 0
  m_Script: {fileID: 11500000, guid: c01700fd266d6914ababb731e09af2eb, type: 3}
  m_Name: DepthOfField
  m_EditorClassIdentifier: 
  active: 1
  m_AdvancedMode: 0
  mode:
    m_OverrideState: 1
    m_Value: 1
  gaussianStart:
    m_OverrideState: 1
    m_Value: 10
    min: 0
  gaussianEnd:
    m_OverrideState: 1
    m_Value: 22.97
    min: 0
  gaussianMaxRadius:
    m_OverrideState: 1
    m_Value: 1.5
    min: 0.5
    max: 1.5
  highQualitySampling:
    m_OverrideState: 1
    m_Value: 1
  focusDistance:
    m_OverrideState: 1
    m_Value: 10
    min: 0.1
  aperture:
    m_OverrideState: 1
    m_Value: 5.6
    min: 1
    max: 32
  focalLength:
    m_OverrideState: 1
    m_Value: 50
    min: 1
    max: 300
  bladeCount:
    m_OverrideState: 1
    m_Value: 5
    min: 3
    max: 9
  bladeCurvature:
    m_OverrideState: 1
    m_Value: 1
    min: 0
    max: 1
  bladeRotation:
    m_OverrideState: 1
    m_Value: 0
    min: -180
    max: 180
--- !u!114 &-4139299225580021780
MonoBehaviour:
  m_ObjectHideFlags: 3
  m_CorrespondingSourceObject: {fileID: 0}
  m_PrefabInstance: {fileID: 0}
  m_PrefabAsset: {fileID: 0}
  m_GameObject: {fileID: 0}
  m_Enabled: 1
  m_EditorHideFlags: 0
  m_Script: {fileID: 11500000, guid: 899c54efeace73346a0a16faa3afe726, type: 3}
  m_Name: Vignette
  m_EditorClassIdentifier: 
  active: 1
  m_AdvancedMode: 0
  color:
    m_OverrideState: 1
    m_Value: {r: 0, g: 0, b: 0, a: 1}
    hdr: 0
    showAlpha: 0
    showEyeDropper: 1
  center:
    m_OverrideState: 1
    m_Value: {x: 0.5, y: 0.5}
  intensity:
    m_OverrideState: 1
    m_Value: 0.122
    min: 0
    max: 1
  smoothness:
    m_OverrideState: 1
    m_Value: 0.72
    min: 0.01
    max: 1
  rounded:
    m_OverrideState: 1
    m_Value: 0
--- !u!114 &-2997561585052528103
MonoBehaviour:
  m_ObjectHideFlags: 3
  m_CorrespondingSourceObject: {fileID: 0}
  m_PrefabInstance: {fileID: 0}
  m_PrefabAsset: {fileID: 0}
  m_GameObject: {fileID: 0}
  m_Enabled: 1
  m_EditorHideFlags: 0
  m_Script: {fileID: 11500000, guid: 81180773991d8724ab7f2d216912b564, type: 3}
  m_Name: ChromaticAberration
  m_EditorClassIdentifier: 
  active: 1
  m_AdvancedMode: 0
  intensity:
    m_OverrideState: 1
    m_Value: 0.4
    min: 0
    max: 1
--- !u!114 &11400000
MonoBehaviour:
  m_ObjectHideFlags: 0
  m_CorrespondingSourceObject: {fileID: 0}
  m_PrefabInstance: {fileID: 0}
  m_PrefabAsset: {fileID: 0}
  m_GameObject: {fileID: 0}
  m_Enabled: 1
  m_EditorHideFlags: 0
  m_Script: {fileID: 11500000, guid: d7fd9488000d3734a9e00ee676215985, type: 3}
  m_Name: OceanFloor Cinematic
  m_EditorClassIdentifier: 
  components:
  - {fileID: 1594333198193690263}
  - {fileID: 4776367114838034230}
  - {fileID: 6645676644995534209}
  - {fileID: -4139299225580021780}
  - {fileID: -2997561585052528103}
  - {fileID: -8335433062019320594}
--- !u!114 &1594333198193690263
MonoBehaviour:
  m_ObjectHideFlags: 3
  m_CorrespondingSourceObject: {fileID: 0}
  m_PrefabInstance: {fileID: 0}
  m_PrefabAsset: {fileID: 0}
  m_GameObject: {fileID: 0}
  m_Enabled: 1
  m_EditorHideFlags: 0
  m_Script: {fileID: 11500000, guid: 0b2db86121404754db890f4c8dfe81b2, type: 3}
  m_Name: Bloom
  m_EditorClassIdentifier: 
  active: 1
  m_AdvancedMode: 0
  threshold:
    m_OverrideState: 1
    m_Value: 1
    min: 0
  intensity:
    m_OverrideState: 1
    m_Value: 0.25
    min: 0
  scatter:
    m_OverrideState: 1
    m_Value: 0.2
    min: 0
    max: 1
  clamp:
    m_OverrideState: 1
    m_Value: 65472
    min: 0
  tint:
    m_OverrideState: 1
    m_Value: {r: 1, g: 1, b: 1, a: 1}
    hdr: 0
    showAlpha: 0
    showEyeDropper: 1
  highQualityFiltering:
    m_OverrideState: 1
    m_Value: 1
  dirtTexture:
    m_OverrideState: 1
    m_Value: {fileID: 2800000, guid: 0d0cf86bffcba452bbdb084db58a390a, type: 3}
  dirtIntensity:
    m_OverrideState: 1
    m_Value: 2.5
    min: 0
--- !u!114 &4776367114838034230
MonoBehaviour:
  m_ObjectHideFlags: 3
  m_CorrespondingSourceObject: {fileID: 0}
  m_PrefabInstance: {fileID: 0}
  m_PrefabAsset: {fileID: 0}
  m_GameObject: {fileID: 0}
  m_Enabled: 1
  m_EditorHideFlags: 0
  m_Script: {fileID: 11500000, guid: 66f335fb1ffd8684294ad653bf1c7564, type: 3}
  m_Name: ColorAdjustments
  m_EditorClassIdentifier: 
  active: 1
  m_AdvancedMode: 0
  postExposure:
    m_OverrideState: 1
    m_Value: 2
  contrast:
    m_OverrideState: 1
    m_Value: 50
    min: -100
    max: 100
  colorFilter:
    m_OverrideState: 1
    m_Value: {r: 1, g: 1, b: 1, a: 1}
    hdr: 1
    showAlpha: 0
    showEyeDropper: 1
  hueShift:
    m_OverrideState: 1
    m_Value: 0
    min: -180
    max: 180
  saturation:
    m_OverrideState: 1
    m_Value: -40
    min: -100
    max: 100
--- !u!114 &6645676644995534209
MonoBehaviour:
  m_ObjectHideFlags: 3
  m_CorrespondingSourceObject: {fileID: 0}
  m_PrefabInstance: {fileID: 0}
  m_PrefabAsset: {fileID: 0}
  m_GameObject: {fileID: 0}
  m_Enabled: 1
  m_EditorHideFlags: 0
  m_Script: {fileID: 11500000, guid: 97c23e3b12dc18c42a140437e53d3951, type: 3}
  m_Name: Tonemapping
  m_EditorClassIdentifier: 
  active: 1
  m_AdvancedMode: 0
  mode:
    m_OverrideState: 1
    m_Value: 2
